Chapter 5 예측을 위한 도구상자 | 시계열 공략집 with R
…
모형의 구조를 정의하는데 사용하는 특정 함수는 모형마다 다르게
정의된다(각 모형이 다른 구조를 지원할 수 있기 때문에). 각 모형에 대한
특정 함수 목록과 설명은 “Special” 챕터에서 볼 수 있다.

5.1.4 모델 학습

적절한 모형이 지정되면 일부 데이터에 대해 학습을 진행한다. model()
함수를 이용해서 하나 이상의 모델의 을 적합시킬 수 있다.

fit <- gdppc %>%
  model(trend_model = TSLM(GDP_per_capita ~ trend()))
fit

#> # A mable: 263 x 2
#> # Key:     Country [263]
#>    Country             trend_model
#>    <fct>                   <model>
#>  1 Afghanistan              <TSLM>
#>  2 Albania                  <TSLM>
#>  3 Algeria                  <TSLM>
#>  4 American Samoa           <TSLM>
#>  5 Andorra                  <TSLM>
#>  6 Angola                   <TSLM>
#>  7 Antigua and Barbuda      <TSLM>
#>  8 Arab World               <TSLM>
#>  9 Argentina                <TSLM>
#> 10 Armenia                  <TSLM>
#> # ... with 253 more rows
…
5.1.6 예측

적절한 모형을 선택하고, 추정 및 확인을 한후 예측을 할 때 사용하는 것이
forecast()이다. 이 함수를 사용하는 가장 쉬운 방법은 예측할 미래 관측치
수를 지정하는 것이다. 예를 들어, 다음 10개의 관측치에 대한 예측값은
h=10을 이용해서 생성할 수 있다. 또다른 예시로 2년 후 미래에 대한
예측값은 h = "2 years"를 이용해서 생성할 수 있다. 또는 예측할 미래
기간에 해당하는 데이터셋을 사전에 만드는 것이 편리할 수도 있다. 모델에
외생변수와 같은 데이터의 추가 정보를 사용할 때 일반적으로 필요하다.
모델에 필요한 추가적인 데이터는 예측할 관측 데이터셋에 포함될 수 있다.

fit %>% forecast(h = "3 years")

#> # A fable: 789 x 5 [1Y]
#> # Key:     Country, .model [263]
#>    Country        .model       Year   GDP_per_capita  .mean
#>    <fct>          <chr>       <dbl>           <dist>  <dbl>
#>  1 Afghanistan    trend_model  2018     N(526, 9653)   526.
#>  2 Afghanistan    trend_model  2019     N(534, 9689)   534.
#>  3 Afghanistan    trend_model  2020     N(542, 9727)   542.
#>  4 Albania        trend_model  2018  N(4716, 476419)  4716.
#>  5 Albania        trend_model  2019  N(4867, 481086)  4867.
#>  6 Albania        trend_model  2020  N(5018, 486012)  5018.
#>  7 Algeria        trend_model  2018  N(4410, 643094)  4410.
#>  8 Algeria        trend_model  2019  N(4489, 645311)  4489.
#>  9 Algeria        trend_model  2020  N(4568, 647602)  4568.
#> 10 American Samoa trend_model  2018 N(12491, 652926) 12491.
#> # ... with 779 more rows
…
5.2 몇가지 간단한 예측 방법

일부 예측 방법은 매우 간단하고 효과적이다. 이 책 전체에서 벤치마크로 네
가지 간단한 예측방법을 사용할 것이다. 이를 설명하기 위해 먼저 1970년부터
2004년까지 분기별 호주 벽돌 생산량 데이터를 사용할 것이다.

aus_production

#> # A tsibble: 218 x 7 [1Q]
#>    Quarter  Beer Tobacco Bricks Cement Electricity   Gas
#>      <qtr> <dbl>   <dbl>  <dbl>  <dbl>       <dbl> <dbl>
#>  1 1956 Q1   284    5225    189    465        3923     5
#>  2 1956 Q2   213    5178    204    532        4436     6
#>  3 1956 Q3   227    5297    208    561        4806     7
#>  4 1956 Q4   308    5681    197    570        4418     6
#>  5 1957 Q1   262    5577    187    529        4339     5
#>  6 1957 Q2   228    5651    214    604        4811     7
#>  7 1957 Q3   236    5317    227    603        5259     7
#>  8 1957 Q4   320    6152    222    582        4735     6
#>  9 1958 Q1   272    5758    199    554        4608     5
#> 10 1958 Q2   233    5641    229    620        5196     7
#> # ... with 208 more rows

filter_index(.data, …)

.data : tsibble

… : start ~ end 또는 ~ end(. ~ end), start ~ .

bricks <- aus_production %>%
  filter_index("1970 Q1" ~ "2004 Q4") %>%
  select(Bricks)

bricks

#> # A tsibble: 140 x 2 [1Q]
#>    Bricks Quarter
#>     <dbl>   <qtr>
#>  1    386 1970 Q1
#>  2    428 1970 Q2
#>  3    434 1970 Q3
#>  4    417 1970 Q4
#>  5    385 1971 Q1
#>  6    433 1971 Q2
#>  7    453 1971 Q3
#>  8    436 1971 Q4
#>  9    399 1972 Q1
#> 10    461 1972 Q2
#> # ... with 130 more rows
…
#> # A mable: 1 x 3
#>      Mean   Naive `Seasonal naive`
#>   <model> <model>          <model>
#> 1  <MEAN> <NAIVE>         <SNAIVE>

# Generate forecasts for 14 quarters
beer_fc <- beer_fit %>% forecast(h = 14)
beer_fc

#> # A fable: 42 x 4 [1Q]
#> # Key:     .model [3]
#>    .model Quarter         Beer .mean
#>    <chr>    <qtr>       <dist> <dbl>
#>  1 Mean   2007 Q1 N(436, 1996)  436.
#>  2 Mean   2007 Q2 N(436, 1996)  436.
#>  3 Mean   2007 Q3 N(436, 1996)  436.
#>  4 Mean   2007 Q4 N(436, 1996)  436.
#>  5 Mean   2008 Q1 N(436, 1996)  436.
#>  6 Mean   2008 Q2 N(436, 1996)  436.
#>  7 Mean   2008 Q3 N(436, 1996)  436.
#>  8 Mean   2008 Q4 N(436, 1996)  436.
#>  9 Mean   2009 Q1 N(436, 1996)  436.
#> 10 Mean   2009 Q2 N(436, 1996)  436.
#> # ... with 32 more rows
…
5.3.2 residuals

시계열 모형에서 잔차는 모델을 적합시킨 후에 남은 것을 의미한다. 즉, 잔차는 관측값과 적합값의 차이로 표현된다.

\[
e_t = y_t - \hat{y_t}
\]
만약 모형에 변환이 사용된 경우, 변환된 척도에서 잔차를 확인하는 것이 유용할 수 있다. 이것을 주로 “innovation residuals”라고 부른다. 예를 들어, 데이터에 로그변환을 했다고 가정했을 때(\(w_t = log(y_t)\)), innovation residuals은 \(w_t - \hat{w_t}\)로 표기할 수 있고, 반면에 regular residuals는 \(y_t - \hat{y}_t\)로 표기할 수 있다. 변환을 수행하지 않았다면 innovation residuals와 regular residuals는 동일하며, 이 경우 우리는 단순하게 “residuals”라고 표기한다.

모델로부터 적합값과 잔차는 augument() 함수를 이용해서 구할 수 있다. 섹션 5.2 맥주 생산량 예시에서, 우리는 beer_fit으로 적합시킨 모형을 저장했다. 그래서 단순하게 augument()를 이용해서 모든 모형에 대한 적합값과 잔차를 계산할 수 있다.

augment(beer_fit)

#> # A tsibble: 180 x 6 [1Q]
#> # Key:       .model [3]
#>    .model Quarter  Beer .fitted .resid .innov
#>    <chr>    <qtr> <dbl>   <dbl>  <dbl>  <dbl>
#>  1 Mean   1992 Q1   443    436.   6.55   6.55
#>  2 Mean   1992 Q2   410    436. -26.4  -26.4 
#>  3 Mean   1992 Q3   420    436. -16.4  -16.4 
#>  4 Mean   1992 Q4   532    436.  95.6   95.6 
#>  5 Mean   1993 Q1   433    436.  -3.45  -3.45
#>  6 Mean   1993 Q2   421    436. -15.4  -15.4 
#>  7 Mean   1993 Q3   410    436. -26.4  -26.4 
#>  8 Mean   1993 Q4   512    436.  75.6   75.6 
#>  9 Mean   1994 Q1   449    436.  12.6   12.6 
#> 10 Mean   1994 Q2   381    436. -55.4  -55.4 
#> # ... with 170 more rows
…
추가적인 두 가지 특성은 예측 구간을 쉽게 계산할 수 있게 만든다(섹션 5.5의 예시 참고). 그러나 이러한 특성을 만족하지 않는 예측 방법을 반드시 개선할 수 있는 것은 아니다. 보통 박스-콕스 변환은 이러한 특성을 만족시키기 위해 도움이 될 수 있지만, 일반적으로 등분산성과 정규성을 만족하기 위해 할 수 있는 것은 거의 없다. 대신에, 예측 구간을 얻기 위한 대안적인 접근이 필요하다. 섹션 5.5에 정규성을 만족하지 않는 “innovation residuals”을 다루는 방법에 대해 알아본다.

5.5 예 : 구글 일일 종가 예측

주식시장 가격과 지수의 경우, 가장 좋은 예측 방법은 주로 naive method이다. 즉, 각 예측값은 단순하게 마지막 관측치 값과 동일하다. (\(\hat{y}_t = y_{t-1}\)). 따라서, 잔차는 단순하게 인접 관측치 사이의 차이와 동일하다.

\[
e_t = y_t - \hat{y}_t = y_t - y_{t-1}
\]
다음 그래프는 2015년의 구글 일일 종가의 추이를 보여준다. 가장 큰 폭의 상승은 2015년 7월 17일에 해당하며, 예상치 못한 2분기 실적으로 인해 16& 상승했다.

gafa_stock

#> # A tsibble: 5,032 x 8 [!]
#> # Key:       Symbol [4]
#>    Symbol Date        Open  High   Low Close Adj_Close    Volume
#>    <chr>  <date>     <dbl> <dbl> <dbl> <dbl>     <dbl>     <dbl>
#>  1 AAPL   2014-01-02  79.4  79.6  78.9  79.0      67.0  58671200
#>  2 AAPL   2014-01-03  79.0  79.1  77.2  77.3      65.5  98116900
#>  3 AAPL   2014-01-06  76.8  78.1  76.2  77.7      65.9 103152700
#>  4 AAPL   2014-01-07  77.8  78.0  76.8  77.1      65.4  79302300
#>  5 AAPL   2014-01-08  77.0  77.9  77.0  77.6      65.8  64632400
#>  6 AAPL   2014-01-09  78.1  78.1  76.5  76.6      65.0  69787200
#>  7 AAPL   2014-01-10  77.1  77.3  75.9  76.1      64.5  76244000
#>  8 AAPL   2014-01-13  75.7  77.5  75.7  76.5      64.9  94623200
#>  9 AAPL   2014-01-14  76.9  78.1  76.8  78.1      66.1  83140400
#> 10 AAPL   2014-01-15  79.1  80.0  78.8  79.6      67.5  97909700
#> # ... with 5,022 more rows

google_stock <- gafa_stock %>%
  dplyr::filter(Symbol == "GOOG", year(Date) >= 2015) %>%
  mutate(day = row_number()) %>%
  update_tsibble(index = day, regular = TRUE)
# Filter the year of interest
google_2015 <- google_stock %>% 
  dplyr::filter(year(Date) == 2015)
google_2015

#> # A tsibble: 252 x 9 [1]
#> # Key:       Symbol [1]
#>    Symbol Date        Open  High   Low Close Adj_Close  Volume   day
#>    <chr>  <date>     <dbl> <dbl> <dbl> <dbl>     <dbl>   <dbl> <int>
#>  1 GOOG   2015-01-02  526.  528.  521.  522.      522. 1447600     1
#>  2 GOOG   2015-01-05  520.  521.  510.  511.      511. 2059800     2
#>  3 GOOG   2015-01-06  512.  513.  498.  499.      499. 2899900     3
#>  4 GOOG   2015-01-07  504.  504.  497.  498.      498. 2065100     4
#>  5 GOOG   2015-01-08  495.  501.  488.  500.      500. 3353600     5
#>  6 GOOG   2015-01-09  502.  502.  492.  493.      493. 2069400     6
#>  7 GOOG   2015-01-12  492.  493.  485.  490.      490. 2322400     7
#>  8 GOOG   2015-01-13  496.  500.  490.  493.      493. 2370500     8
#>  9 GOOG   2015-01-14  492.  500.  490.  498.      498. 2235700     9
#> 10 GOOG   2015-01-15  503.  503.  495.  499.      499. 2715800    10
#> # ... with 242 more rows
…
\[
y_{T+2} = \hat y_{T+2|T+1} + e_{T+2}
\]

이때, \(e_{T+2}\)는 일련의 잔차들로부터 추출된 또 다른 결과이다. 이 방법을 지속하면서 우리는 우리가 가진 시계열에 대해 전체 미래의 값들을 시뮬레이션 할 수 있다.

이 과정을 반복하면서 우리는 많은 가능한 미래들을 얻게 된다. 이들 중 일부를 확인하기 위해서 generate() 함수를 사용할 수 있다.

fit <- google_2015 %>%
  model(NAIVE(Close))
sim <- fit %>% generate(h = 30, times = 5, bootstrap = TRUE)
sim

#> # A tsibble: 150 x 5 [1]
#> # Key:       Symbol, .model, .rep [5]
#>    Symbol .model         day .rep   .sim
#>    <chr>  <chr>        <dbl> <chr> <dbl>
#>  1 GOOG   NAIVE(Close)   253 1      751.
#>  2 GOOG   NAIVE(Close)   254 1      757.
#>  3 GOOG   NAIVE(Close)   255 1      753.
#>  4 GOOG   NAIVE(Close)   256 1      745.
#>  5 GOOG   NAIVE(Close)   257 1      745.
#>  6 GOOG   NAIVE(Close)   258 1      753.
#>  7 GOOG   NAIVE(Close)   259 1      750.
#>  8 GOOG   NAIVE(Close)   260 1      754.
#>  9 GOOG   NAIVE(Close)   261 1      750.
#> 10 GOOG   NAIVE(Close)   262 1      750.
#> # ... with 140 more rows
…
그림 5.3: 부트스트랩 잔차를 이용한 단순 방법에 기초한 구글 종가의 다섯 가지 시뮬레이션된 미래 표본 경로

각 예측 범위에 대해 미래 표본 경로의 분위를 계산함으로써 예측 구간을 산출할 수 있다. 그 결과는 부트스트랩된 예측 구간이라고 불린다.

이는 forecast() 함수에 모두 빌트인 되어 있으며, 직접적으로 generate()를 사용할 필요는 없다.

fc <- fit %>% forecast(h = 30, bootstrap = TRUE)
fc

#> # A fable: 30 x 5 [1]
#> # Key:     Symbol, .model [1]
#>    Symbol .model         day        Close .mean
#>    <chr>  <chr>        <dbl>       <dist> <dbl>
#>  1 GOOG   NAIVE(Close)   253 sample[5000]  759.
#>  2 GOOG   NAIVE(Close)   254 sample[5000]  759.
#>  3 GOOG   NAIVE(Close)   255 sample[5000]  759.
#>  4 GOOG   NAIVE(Close)   256 sample[5000]  759.
#>  5 GOOG   NAIVE(Close)   257 sample[5000]  759.
#>  6 GOOG   NAIVE(Close)   258 sample[5000]  759.
#>  7 GOOG   NAIVE(Close)   259 sample[5000]  759.
#>  8 GOOG   NAIVE(Close)   260 sample[5000]  759.
#>  9 GOOG   NAIVE(Close)   261 sample[5000]  758.
#> 10 GOOG   NAIVE(Close)   262 sample[5000]  758.
#> # ... with 20 more rows
…
트레이닝 데이터를 잘 적합하는 모델이 반드시 예측을 잘 하지는 않는다.

완벽한 모델 적합도는 충분한 수의 모수를 가진 모델을 사용하면 항상 얻을 수 있다.

데이터에 과적합된 모델은 데이터의 체계적 패턴을 식별하는 데 실패하는 것 만큼이나 나쁘다.

테스트셋을 “hold-out set”이라고 하는 것은 이 테스트셋이 적합하는 데 사용된 데이터 이외의 데이터로 구성되기 때문이다. 또 다른 이들은 트레이닝 셋을 “in-sample data”라고 부르기도 하며, 테스트셋을 “out-of-sample data”라고 하기도 한다. 이 책에서는 트레이닝 데이터와 테스트 데이터라고 사용한다.

5.10.2 시계열을 서브셋하는 함수

filter() 함수는 트레이닝과 테스트셋과 같이 대개 시계열의 일부를 추출하는 데 유용하다. 데이터를 평가하기 위한 세트로 분리할 때, 데이터의 인덱스로 필터링하는 것은 특히 유용하다. 예를 들어, 다음의 코드는 1995년부터의 모든 데이터를 추출한다.

aus_production %>% dplyr::filter(year(Quarter) >= 1995)

#> # A tsibble: 62 x 7 [1Q]
#>    Quarter  Beer Tobacco Bricks Cement Electricity   Gas
#>      <qtr> <dbl>   <dbl>  <dbl>  <dbl>       <dbl> <dbl>
#>  1 1995 Q1   426    4714    430   1626       41768   131
#>  2 1995 Q2   408    3939    457   1703       43686   167
#>  3 1995 Q3   416    6137    417   1733       46022   181
#>  4 1995 Q4   520    4739    370   1545       42800   145
#>  5 1996 Q1   409    4275    310   1526       43661   133
#>  6 1996 Q2   398    5239    358   1593       44707   162
#>  7 1996 Q3   398    6293    379   1706       46326   184
#>  8 1996 Q4   507    5575    369   1699       43346   146
#>  9 1997 Q1   432    4802    330   1511       43938   135
#> 10 1997 Q2   398    5523    390   1785       45828   171
#> # ... with 52 more rows

filter_index()로도 같은 결과를 얻을 수 있다.

aus_production %>% filter_index("1995 Q1" ~ .)

#> # A tsibble: 62 x 7 [1Q]
#>    Quarter  Beer Tobacco Bricks Cement Electricity   Gas
#>      <qtr> <dbl>   <dbl>  <dbl>  <dbl>       <dbl> <dbl>
#>  1 1995 Q1   426    4714    430   1626       41768   131
#>  2 1995 Q2   408    3939    457   1703       43686   167
#>  3 1995 Q3   416    6137    417   1733       46022   181
#>  4 1995 Q4   520    4739    370   1545       42800   145
#>  5 1996 Q1   409    4275    310   1526       43661   133
#>  6 1996 Q2   398    5239    358   1593       44707   162
#>  7 1996 Q3   398    6293    379   1706       46326   184
#>  8 1996 Q4   507    5575    369   1699       43346   146
#>  9 1997 Q1   432    4802    330   1511       43938   135
#> 10 1997 Q2   398    5523    390   1785       45828   171
#> # ... with 52 more rows
…
슬라이스는 각각의 키에 대응하는 관측치를 서브셋할 수 있도록 하여 집단에 대해서도 작동한다. 예를 들어, 다음의 코드는 데이터의 각 사계열의 첫 번째 연도별 데이터로 서브셋을 만든다.

aus_retail %>%
  group_by(State, Industry) %>%
  slice(1:12)

#> # A tsibble: 1,824 x 5 [1M]
#> # Key:       State, Industry [152]
#> # Groups:    State, Industry [152]
#>    State                        Industry            `Series ID`   Month Turnover
#>    <chr>                        <chr>               <chr>         <mth>    <dbl>
#>  1 Australian Capital Territory Cafes, restaurants~ A3349849A    1982 4      4.4
#>  2 Australian Capital Territory Cafes, restaurants~ A3349849A    1982 5      3.4
#>  3 Australian Capital Territory Cafes, restaurants~ A3349849A    1982 6      3.6
#>  4 Australian Capital Territory Cafes, restaurants~ A3349849A    1982 7      4  
#>  5 Australian Capital Territory Cafes, restaurants~ A3349849A    1982 8      3.6
#>  6 Australian Capital Territory Cafes, restaurants~ A3349849A    1982 9      4.2
#>  7 Australian Capital Territory Cafes, restaurants~ A3349849A   1982 10      4.8
#>  8 Australian Capital Territory Cafes, restaurants~ A3349849A   1982 11      5.4
#>  9 Australian Capital Territory Cafes, restaurants~ A3349849A   1982 12      6.9
#> 10 Australian Capital Territory Cafes, restaurants~ A3349849A    1983 1      3.8
#> # ... with 1,814 more rows
…
다음 예제에서 우리는 잔차 정확성을 가지고 시계열 교차 타당화로 얻어낸 정확도를 비교한다. stretch_tsibble() 함수는 수많은 트레이닝 셋들을 만드는 데 사용된다. 이 예제에서 트레이닝셋의 길이는 .init = 3에서 시작하며, 이어지는 트레이닝셋의 크기는 .step = 1로 증가한다.

# 시계열 교차 타당성 정확도
google_2015_tr <- google_2015 %>%
  stretch_tsibble(.init = 3, .step = 1) %>%
  relocate(Date, Symbol, .id)
google_2015_tr

#> # A tsibble: 31,875 x 10 [1]
#> # Key:       Symbol, .id [250]
#>    Date       Symbol   .id  Open  High   Low Close Adj_Close  Volume   day
#>    <date>     <chr>  <int> <dbl> <dbl> <dbl> <dbl>     <dbl>   <dbl> <int>
#>  1 2015-01-02 GOOG       1  526.  528.  521.  522.      522. 1447600     1
#>  2 2015-01-05 GOOG       1  520.  521.  510.  511.      511. 2059800     2
#>  3 2015-01-06 GOOG       1  512.  513.  498.  499.      499. 2899900     3
#>  4 2015-01-02 GOOG       2  526.  528.  521.  522.      522. 1447600     1
#>  5 2015-01-05 GOOG       2  520.  521.  510.  511.      511. 2059800     2
#>  6 2015-01-06 GOOG       2  512.  513.  498.  499.      499. 2899900     3
#>  7 2015-01-07 GOOG       2  504.  504.  497.  498.      498. 2065100     4
#>  8 2015-01-02 GOOG       3  526.  528.  521.  522.      522. 1447600     1
#>  9 2015-01-05 GOOG       3  520.  521.  510.  511.      511. 2059800     2
#> 10 2015-01-06 GOOG       3  512.  513.  498.  499.      499. 2899900     3
#> # ... with 31,865 more rows
…
